0410_fw/10.0ohm/1.0hz7mm/DS0001.CSV

Format,2.0E,
Memory Length,10000,
IntpDistance,0,
Trigger Address,0,
Trigger Level,0.000E+00,
Source,CH1,
Vertical Units,V,
Vertical Units Div,0,
Vertical Units Extend Div,16,
Label, ,
Probe Type,0,
Probe Ratio,1.000E+00,
Vertical Scale,5.000E+00,
Vertical Position,0.000E+00,
Horizontal Units,S,
Horizontal Scale,5.000E-01,
Horizontal Position,0.000E+00,
Horizontal Mode,Roll Mode,
Display Last Dot Address,10000,
Waveform Last Dot Address,0,
SincET Mode,Real Time,
Sampling Period,5.000E-04,
Horizontal Old Scale,5.000E-01,
Horizontal Old Position,0.000E+00,
Firmware,V1.26,
Time,10-Apr-18 12:08:32,
Mode,Detail,
Waveform Data,
-2.500000e+00,1.00e+00,
-2.499500e+00,0.00e+00,
-2.499000e+00,-6.00e-01,
-2.498500e+00,-1.40e+00,
-2.498000e+00,-2.00e+00,
-2.497500e+00,-2.40e+00,
-2.497000e+00,-2.40e+00,
-2.496500e+00,-2.40e+00,
-2.496000e+00,-2.20e+00,
-2.495500e+00,-1.80e+00,
-2.495000e+00,-1.40e+00,
-2.494500e+00,-6.00e-01,
-2.494000e+00,0.00e+00,
-2.493500e+00,8.00e-01,
-2.493000e+00,1.40e+00,
-2.492500e+00,2.20e+00,
-2.492000e+00,2.60e+00,
-2.491500e+00,3.00e+00,
-2.491000e+00,3.20e+00,
-2.490500e+00,3.20e+00,
-2.490000e+00,3.00e+00,
-2.489500e+00,2.60e+00,
-2.489000e+00,2.00e+00,
-2.488500e+00,1.40e+00,
-2.488000e+00,6.00e-01,
-2.487500e+00,0.00e+00,
-2.487000e+00,-8.00e-01,
-2.486500e+00,-1.40e+00,
-2.486000e+00,-1.80e+00,
-2.485500e+00,-2.20e+00,
-2.485000e+00,-2.40e+00,
-2.484500e+00,-2.40e+00,
-2.484000e+00,-2.20e+00,
-2.483500e+00,-1.80e+00,
-2.483000e+00,-1.40e+00,
-2.482500e+00,-8.00e-01,
-2.482000e+00,-2.00e-01,
-2.481500e+00,6.00e-01,
-2.481000e+00,1.40e+00,
-2.480500e+00,1.80e+00,
-2.480000e+00,2.40e+00,
-2.479500e+00,2.80e+00,
-2.479000e+00,3.20e+00,
-2.478500e+00,3.20e+00,
-2.478000e+00,3.00e+00,
-2.477500e+00,2.80e+00,
-2.477000e+00,2.40e+00,
-2.476500e+00,1.80e+00,
-2.476000e+00,1.20e+00,
-2.475500e+00,4.00e-01,
-2.475000e+00,-4.00e-01,
-2.474500e+00,-1.00e+00,
-2.474000e+00,-1.40e+00,
-2.473500e+00,-2.00e+00,
-2.473000e+00,-2.20e+00,
-2.472500e+00,-2.40e+00,
-2.472000e+00,-2.40e+00,
-2.471500e+00,-2.20e+00,
-2.471000e+00,-1.80e+00,
-2.470500e+00,-1.20e+00,
-2.470000e+00,-6.00e-01,
-2.469500e+00,0.00e+00,
-2.469000e+00,6.00e-01,
-2.468500e+00,1.20e+00,
-2.468000e+00,1.80e+00,
-2.467500e+00,2.40e+00,
-2.467000e+00,2.80e+00,
-2.466500e+00,3.00e+00,
-2.466000e+00,3.00e+00,
-2.465500e+00,2.80e+00,
-2.465000e+00,2.80e+00,
-2.464500e+00,2.40e+00,
-2.464000e+00,2.00e+00,
-2.463500e+00,1.40e+00,
-2.463000e+00,8.00e-01,
-2.462500e+00,0.00e+00,
-2.462000e+00,-8.00e-01,
-2.461500e+00,-1.20e+00,
-2.461000e+00,-1.60e+00,
-2.460500e+00,-2.00e+00,
-2.460000e+00,-2.20e+00,
-2.459500e+00,-2.20e+00,
-2.459000e+00,-2.20e+00,
-2.458500e+00,-2.00e+00,
-2.458000e+00,-1.60e+00,
-2.457500e+00,-1.00e+00,
-2.457000e+00,-6.00e-01,
-2.456500e+00,0.00e+00,
-2.456000e+00,6.00e-01,
-2.455500e+00,1.20e+00,
-2.455000e+00,1.80e+00,
-2.454500e+00,2.20e+00,
-2.454000e+00,2.60e+00,
-2.453500e+00,3.00e+00,
-2.453000e+00,3.00e+00,
-2.452500e+00,2.80e+00,
-2.452000e+00,2.80e+00,
-2.451500e+00,2.40e+00,
-2.451000e+00,2.00e+00,
-2.450500e+00,1.60e+00,
-2.450000e+00,1.00e+00,
-2.449500e+00,4.00e-01,
-2.449000e+00,-2.00e-01,
-2.448500e+00,-8.00e-01,
-2.448000e+00,-1.20e+00,
-2.447500e+00,-1.60e+00,
-2.447000e+00,-1.80e+00,
-2.446500e+00,-2.20e+00,
-2.446000e+00,-2.20e+00,
-2.445500e+00,-2.00e+00,
-2.445000e+00,-1.80e+00,
-2.444500e+00,-1.40e+00,
-2.444000e+00,-1.00e+00,
-2.443500e+00,-6.00e-01,
-2.443000e+00,0.00e+00,
-2.442500e+00,4.00e-01,
-2.442000e+00,8.00e-01,
-2.441500e+00,1.20e+00,
-2.441000e+00,1.80e+00,
-2.440500e+00,2.00e+00,
-2.440000e+00,2.60e+00,
-2.439500e+00,2.60e+00,
-2.439000e+00,2.80e+00,
-2.438500e+00,2.80e+00,
-2.438000e+00,2.60e+00,
-2.437500e+00,2.40e+00,
-2.437000e+00,2.20e+00,
-2.436500e+00,1.80e+00,
-2.436000e+00,1.40e+00,
-2.435500e+00,8.00e-01,
-2.435000e+00,2.00e-01,
-2.434500e+00,-2.00e-01,
-2.434000e+00,-8.00e-01,
-2.433500e+00,-1.20e+00,
-2.433000e+00,-1.40e+00,
-2.432500e+00,-1.80e+00,
-2.432000e+00,-1.80e+00,
-2.431500e+00,-1.80e+00,
-2.431000e+00,-1.80e+00,
-2.430500e+00,-1.80e+00,
-2.430000e+00,-1.60e+00,
-2.429500e+00,-1.20e+00,
-2.429000e+00,-8.00e-01,
-2.428500e+00,-4.00e-01,
-2.428000e+00,0.00e+00,
-2.427500e+00,6.00e-01,
-2.427000e+00,1.00e+00,
-2.426500e+00,1.20e+00,
-2.426000e+00,1.60e+00,
-2.425500e+00,2.00e+00,
-2.425000e+00,2.20e+00,
-2.424500e+00,2.60e+00,
-2.424000e+00,2.60e+00,
-2.423500e+00,2.60e+00,
-2.423000e+00,2.40e+00,
-2.422500e+00,2.20e+00,
-2.422000e+00,2.00e+00,
-2.421500e+00,1.80e+00,
-2.421000e+00,1.40e+00,
-2.420500e+00,1.00e+00,
-2.420000e+00,6.00e-01,
-2.419500e+00,2.00e-01,
-2.419000e+00,-2.00e-01,
-2.418500e+00,-6.00e-01,
-2.418000e+00,-1.00e+00,
-2.417500e+00,-1.20e+00,
-2.417000e+00,-1.40e+00,
-2.416500e+00,-1.60e+00,
-2.416000e+00,-1.60e+00,
-2.415500e+00,-1.80e+00,
-2.415000e+00,-1.60e+00,
-2.414500e+00,-1.40e+00,
-2.414000e+00,-1.40e+00,
-2.413500e+00,-1.00e+00,
-2.413000e+00,-8.00e-01,
-2.412500e+00,-4.00e-01,
-2.412000e+00,0.00e+00,
-2.411500e+00,2.00e-01,
-2.411000e+00,8.00e-01,
-2.410500e+00,1.20e+00,
-2.410000e+00,1.40e+00,
-2.409500e+00,1.60e+00,
-2.409000e+00,1.80e+00,
-2.408500e+00,2.20e+00,
-2.408000e+00,2.20e+00,
-2.407500e+00,2.40e+00,
-2.407000e+00,2.40e+00,
-2.406500e+00,2.20e+00,
-2.406000e+00,2.20e+00,
-2.405500e+00,2.00e+00,
-2.405000e+00,1.80e+00,
-2.404500e+00,1.60e+00,
-2.404000e+00,1.20e+00,
-2.403500e+00,1.00e+00,
-2.403000e+00,6.00e-01,
-2.402500e+00,2.00e-01,
-2.402000e+00,0.00e+00,
-2.401500e+00,-4.00e-01,
-2.401000e+00,-6.00e-01,
-2.400500e+00,-8.00e-01,
-2.400000e+00,-1.00e+00,
-2.399500e+00,-1.40e+00,
-2.399000e+00,-1.40e+00,
-2.398500e+00,-1.40e+00,
-2.398000e+00,-1.40e+00,
-2.397500e+00,-1.40e+00,
-2.397000e+00,-1.20e+00,
-2.396500e+00,-1.20e+00,
-2.396000e+00,-1.20e+00,
-2.395500e+00,-8.00e-01,
-2.395000e+00,-4.00e-01,
-2.394500e+00,-4.00e-01,
-2.394000e+00,0.00e+00,
-2.393500e+00,2.00e-01,
-2.393000e+00,4.00e-01,
-2.392500e+00,8.00e-01,
-2.392000e+00,1.00e+00,
-2.391500e+00,1.40e+00,
-2.391000e+00,1.40e+00,
-2.390500e+00,1.60e+00,
-2.390000e+00,1.80e+00,
-2.389500e+00,1.80e+00,
-2.389000e+00,2.00e+00,
-2.388500e+00,2.00e+00,
-2.388000e+00,2.00e+00,
-2.387500e+00,2.00e+00,
-2.387000e+00,2.00e+00,
-2.386500e+00,1.80e+00,
-2.386000e+00,1.60e+00,
-2.385500e+00,1.60e+00,
-2.385000e+00,1.40e+00,
-2.384500e+00,1.20e+00,
-2.384000e+00,1.00e+00,
-2.383500e+00,8.00e-01,
-2.383000e+00,6.00e-01,
-2.382500e+00,2.00e-01,
-2.382000e+00,2.00e-01,
-2.381500e+00,-2.00e-01,
-2.381000e+00,-2.00e-01,
-2.380500e+00,-6.00e-01,
-2.380000e+00,-6.00e-01,
-2.379500e+00,-8.00e-01,
-2.379000e+00,-1.00e+00,
-2.378500e+00,-1.00e+00,
-2.378000e+00,-1.00e+00,
-2.377500e+00,-1.20e+00,
-2.377000e+00,-1.20e+00,
-2.376500e+00,-1.00e+00,
-2.376000e+00,-1.00e+00,
-2.375500e+00,-1.00e+00,
-2.375000e+00,-8.00e-01,
-2.374500e+00,-6.00e-01,
-2.374000e+00,-4.00e-01,
-2.373500e+00,-4.00e-01,
-2.373000e+00,-2.00e-01,
-2.372500e+00,0.00e+00,
-2.372000e+00,0.00e+00,
-2.371500e+00,0.00e+00,
-2.371000e+00,4.00e-01,
-2.370500e+00,6.00e-01,
-2.370000e+00,8.00e-01,
-2.369500e+00,8.00e-01,
-2.369000e+00,1.00e+00,
-2.368500e+00,1.20e+00,
-2.368000e+00,1.20e+00,
-2.367500e+00,1.40e+00,
-2.367000e+00,1.40e+00,
-2.366500e+00,1.40e+00,
-2.366000e+00,1.60e+00,
-2.365500e+00,1.60e+00,
-2.365000e+00,1.40e+00,
-2.364500e+00,1.60e+00,
-2.364000e+00,1.80e+00,
-2.363500e+00,1.60e+00,
-2.363000e+00,1.60e+00,
-2.362500e+00,1.60e+00,
-2.362000e+00,1.40e+00,
-2.361500e+00,1.40e+00,
-2.361000e+00,1.40e+00,
-2.360500e+00,1.20e+00,
-2.360000e+00,1.20e+00,
-2.359500e+00,1.00e+00,
-2.359000e+00,8.00e-01,
-2.358500e+00,8.00e-01,
-2.358000e+00,6.00e-01,
-2.357500e+00,4.00e-01,
-2.357000e+00,2.00e-01,
-2.356500e+00,2.00e-01,
-2.356000e+00,2.00e-01,
-2.355500e+00,0.00e+00,
-2.355000e+00,-2.00e-01,
-2.354500e+00,-2.00e-01,
-2.354000e+00,-4.00e-01,
-2.353500e+00,-4.00e-01,
-2.353000e+00,-4.00e-01,
-2.352500e+00,-6.00e-01,
-2.352000e+00,-6.00e-01,
-2.351500e+00,-6.00e-01,
-2.351000e+00,-6.00e-01,
-2.350500e+00,-6.00e-01,
-2.350000e+00,-6.00e-01,
-2.349500e+00,-6.00e-01,
-2.349000e+00,-6.00e-01,
-2.348500e+00,-4.00e-01,
-2.348000e+00,-6.00e-01,
-2.347500e+00,-6.00e-01,
-2.347000e+00,-4.00e-01,
-2.346500e+00,-4.00e-01,
-2.346000e+00,-4.00e-01,
-2.345500e+00,-4.00e-01,
-2.345000e+00,-2.00e-01,
-2.344500e+00,-2.00e-01,
-2.344000e+00,-2.00e-01,
-2.343500e+00,-2.00e-01,
-2.343000e+00,0.00e+00,
-2.342500e+00,0.00e+00,
-2.342000e+00,0.00e+00,
-2.341500e+00,0.00e+00,
-2.341000e+00,2.00e-01,
-2.340500e+00,2.00e-01,
-2.340000e+00,2.00e-01,
-2.339500e+00,4.00e-01,
-2.339000e+00,4.00e-01,
-2.338500e+00,6.00e-01,
-2.338000e+00,6.00e-01,
-2.337500e+00,6.00e-01,
-2.337000e+00,6.00e-01,
-2.336500e+00,6.00e-01,
-2.336000e+00,8.00e-01,
-2.335500e+00,8.00e-01,
-2.335000e+00,8.00e-01,
-2.334500e+00,1.00e+00,
-2.334000e+00,8.00e-01,
-2.333500e+00,1.00e+00,
-2.333000e+00,1.00e+00,
-2.332500e+00,1.00e+00,
-2.332000e+00,1.00e+00,
-2.331500e+00,1.00e+00,
-2.331000e+00,1.00e+00,
-2.330500e+00,1.00e+00,
-2.330000e+00,1.00e+00,
-2.329500e+00,1.00e+00,
-2.329000e+00,1.00e+00,
-2.328500e+00,1.00e+00,
-2.328000e+00,1.00e+00,
-2.327500e+00,1.00e+00,
-2.327000e+00,1.00e+00,
-2.326500e+00,1.00e+00,
-2.326000e+00,1.00e+00,
-2.325500e+00,1.00e+00,
-2.325000e+00,1.00e+00,
-2.324500e+00,8.00e-01,
-2.324000e+00,1.00e+00,
-2.323500e+00,1.00e+00,
-2.323000e+00,8.00e-01,
-2.322500e+00,8.00e-01,
-2.322000e+00,8.00e-01,
-2.321500e+00,8.00e-01,
-2.321000e+00,8.00e-01,
-2.320500e+00,8.00e-01,
-2.320000e+00,8.00e-01,
-2.319500e+00,8.00e-01,
-2.319000e+00,8.00e-01,
-2.318500e+00,8.00e-01,
-2.318000e+00,6.00e-01,
-2.317500e+00,6.00e-01,
-2.317000e+00,6.00e-01,
-2.316500e+00,6.00e-01,
-2.316000e+00,6.00e-01,
-2.315500e+00,6.00e-01,
-2.315000e+00,6.00e-01,
-2.314500e+00,6.00e-01,
-2.314000e+00,6.00e-01,
-2.313500e+00,4.00e-01,
-2.313000e+00,4.00e-01,
-2.312500e+00,4.00e-01,
-2.312000e+00,4.00e-01,
-2.311500e+00,6.00e-01,
-2.311000e+00,4.00e-01,
-2.310500e+00,4.00e-01,
-2.310000e+00,4.00e-01,
-2.309500e+00,4.00e-01,
-2.309000e+00,4.00e-01,
-2.308500e+00,4.00e-01,
-2.308000e+00,4.00e-01,
-2.307500e+00,4.00e-01,
-2.307000e+00,2.00e-01,
-2.306500e+00,4.00e-01,
-2.306000e+00,4.00e-01,
-2.305500e+00,4.00e-01,
-2.305000e+00,4.00e-01,
-2.304500e+00,4.00e-01,
-2.304000e+00,2.00e-01,
-2.303500e+00,4.00e-01,
-2.303000e+00,4.00e-01,
-2.302500e+00,4.00e-01,
-2.302000e+00,4.00e-01,
-2.301500e+00,2.00e-01,
-2.301000e+00,4.00e-01,
-2.300500e+00,4.00e-01,
-2.300000e+00,4.00e-01,
-2.299500e+00,4.00e-01,
-2.299000e+00,4.00e-01,
-2.298500e+00,4.00e-01,
-2.298000e+00,4.00e-01,
-2.297500e+00,6.00e-01,
-2.297000e+00,4.00e-01,
-2.296500e+00,4.00e-01,
-2.296000e+00,2.00e-01,
-2.295500e+00,4.00e-01,
-2.295000e+00,4.00e-01,
-2.294500e+00,4.00e-01,
-2.294000e+00,4.00e-01,
-2.293500e+00,4.00e-01,
-2.293000e+00,4.00e-01,
-2.292500e+00,4.00e-01,
-2.292000e+00,4.00e-01,
-2.291500e+00,4.00e-01,
-2.291000e+00,4.00e-01,
-2.290500e+00,4.00e-01,
-2.290000e+00,4.00e-01,
-2.289500e+00,2.00e-01,
-2.289000e+00,4.00e-01,
-2.288500e+00,4.00e-01,
-2.288000e+00,4.00e-01,
-2.287500e+00,4.00e-01,
-2.287000e+00,4.00e-01,
-2.286500e+00,4.00e-01,
-2.286000e+00,4.00e-01,
-2.285500e+00,4.00e-01,
-2.285000e+00,4.00e-01,
-2.284500e+00,4.00e-01,
-2.284000e+00,4.00e-01,
-2.283500e+00,4.00e-01,
-2.283000e+00,4.00e-01,
-2.282500e+00,6.00e-01,
-2.282000e+00,4.00e-01,
-2.281500e+00,4.00e-01,
-2.281000e+00,4.00e-01,
-2.280500e+00,4.00e-01,
-2.280000e+00,4.00e-01,
-2.279500e+00,4.00e-01,
-2.279000e+00,4.00e-01,
-2.278500e+00,4.00e-01,
-2.278000e+00,4.00e-01,
-2.277500e+00,6.00e-01,
-2.277000e+00,4.00e-01,
-2.276500e+00,4.00e-01,
-2.276000e+00,4.00e-01,
-2.275500e+00,4.00e-01,
-2.275000e+00,4.00e-01,
-2.274500e+00,4.00e-01,
-2.274000e+00,4.00e-01,
-2.273500e+00,4.00e-01,
-2.273000e+00,4.00e-01,
-2.272500e+00,4.00e-01,
-2.272000e+00,4.00e-01,
-2.271500e+00,4.00e-01,
-2.271000e+00,4.00e-01,
-2.270500e+00,4.00e-01,
-2.270000e+00,4.00e-01,
-2.269500e+00,4.00e-01,
-2.269000e+00,4.00e-01,
-2.268500e+00,4.00e-01,
-2.268000e+00,4.00e-01,
-2.267500e+00,4.00e-01,
-2.267000e+00,4.00e-01,
-2.266500e+00,4.00e-01,
-2.266000e+00,4.00e-01,
-2.265500e+00,4.00e-01,
-2.265000e+00,4.00e-01,
-2.264500e+00,4.00e-01,
-2.264000e+00,2.00e-01,
-2.263500e+00,4.00e-01,
-2.263000e+00,4.00e-01,
-2.262500e+00,4.00e-01,
-2.262000e+00,4.00e-01,
-2.261500e+00,4.00e-01,
-2.261000e+00,4.00e-01,
-2.260500e+00,4.00e-01,
-2.260000e+00,4.00e-01,
-2.259500e+00,4.00e-01,
-2.259000e+00,4.00e-01,
-2.258500e+00,4.00e-01,
-2.258000e+00,4.00e-01,
-2.257500e+00,2.00e-01,
-2.257000e+00,2.00e-01,
-2.256500e+00,2.00e-01,
-2.256000e+00,4.00e-01,
-2.255500e+00,2.00e-01,
-2.255000e+00,4.00e-01,
-2.254500e+00,2.00e-01,
-2.254000e+00,4.00e-01,
-2.253500e+00,4.00e-01,
-2.253000e+00,2.00e-01,
-2.252500e+00,4.00e-01,
-2.252000e+00,4.00e-01,
-2.251500e+00,2.00e-01,
-2.251000e+00,2.00e-01,
-2.250500e+00,4.00e-01,
-2.250000e+00,4.00e-01,
-2.249500e+00,4.00e-01,
-2.249000e+00,4.00e-01,
-2.248500e+00,4.00e-01,
-2.248000e+00,4.00e-01,
-2.247500e+00,2.00e-01,
-2.247000e+00,4.00e-01,
-2.246500e+00,2.00e-01,
-2.246000e+00,2.00e-01,
-2.245500e+00,4.00e-01,
-2.245000e+00,2.00e-01,
-2.244500e+00,2.00e-01,
-2.244000e+00,4.00e-01,
-2.243500e+00,2.00e-01,
-2.243000e+00,4.00e-01,
-2.242500e+00,4.00e-01,
-2.242000e+00,2.00e-01,
-2.241500e+00,2.00e-01,
-2.241000e+00,2.00e-01,
-2.240500e+00,2.00e-01,
-2.240000e+00,2.00e-01,
-2.239500e+00,2.00e-01,
-2.239000e+00,2.00e-01,
-2.238500e+00,2.00e-01,
-2.238000e+00,0.00e+00,
-2.237500e+00,0.00e+00,
-2.237000e+00,0.00e+00,
-2.236500e+00,2.00e-01,
-2.236000e+00,0.00e+00,
-2.235500e+00,0.00e+00,
-2.235000e+00,0.00e+00,
-2.234500e+00,0.00e+00,
-2.234000e+00,0.00e+00,
-2.233500e+00,0.00e+00,
-2.233000e+00,0.00e+00,
-2.232500e+00,0.00e+00,
-2.232000e+00,0.00e+00,
-2.231500e+00,0.00e+00,
-2.231000e+00,0.00e+00,
-2.230500e+00,-2.00e-01,
-2.230000e+00,0.00e+00,
-2.229500e+00,-2.00e-01,
-2.229000e+00,-2.00e-01,
-2.228500e+00,0.00e+00,
-2.228000e+00,-2.00e-01,
-2.227500e+00,0.00e+00,
-2.227000e+00,-2.00e-01,
-2.226500e+00,-2.00e-01,
-2.226000e+00,-2.00e-01,
-2.225500e+00,-2.00e-01,
-2.225000e+00,-2.00e-01,
-2.224500e+00,-2.00e-01,
-2.224000e+00,-2.00e-01,
-2.223500e+00,-2.00e-01,
-2.223000e+00,0.00e+00,
-2.222500e+00,0.00e+00,
-2.222000e+00,0.00e+00,
-2.221500e+00,0.00e+00,
-2.221000e+00,0.00e+00,
-2.220500e+00,0.00e+00,
-2.220000e+00,0.00e+00,
-2.219500e+00,0.00e+00,
-2.219000e+00,2.00e-01,
-2.218500e+00,2.00e-01,
-2.218000e+00,2.00e-01,
-2.217500e+00,4.00e-01,
-2.217000e+00,4.00e-01,
-2.216500e+00,4.00e-01,
-2.216000e+00,2.00e-01,
-2.215500e+00,6.00e-01,
-2.215000e+00,6.00e-01,
-2.214500e+00,4.00e-01,
-2.214000e+00,6.00e-01,
-2.213500e+00,6.00e-01,
-2.213000e+00,8.00e-01,
-2.212500e+00,8.00e-01,
-2.212000e+00,1.00e+00,
-2.211500e+00,1.00e+00,
-2.211000e+00,1.00e+00,
-2.210500e+00,1.00e+00,
-2.210000e+00,1.20e+00,
-2.209500e+00,1.20e+00,
-2.209000e+00,1.20e+00,
-2.208500e+00,1.40e+00,
-2.208000e+00,1.40e+00,
-2.207500e+00,1.40e+00,
-2.207000e+00,1.40e+00,
-2.206500e+00,1.40e+00,
-2.206000e+00,1.40e+00,
-2.205500e+00,1.40e+00,
-2.205000e+00,1.40e+00,
-2.204500e+00,1.40e+00,
-2.204000e+00,1.40e+00,
-2.203500e+00,1.20e+00,
-2.203000e+00,1.20e+00,
-2.202500e+00,1.20e+00,
-2.202000e+00,1.00e+00,
-2.201500e+00,1.00e+00,
-2.201000e+00,8.00e-01,
-2.200500e+00,8.00e-01,
-2.200000e+00,6.00e-01,
-2.199500e+00,6.00e-01,
-2.199000e+00,4.00e-01,
-2.198500e+00,2.00e-01,
-2.198000e+00,2.00e-01,
-2.197500e+00,0.00e+00,
-2.197000e+00,0.00e+00,
-2.196500e+00,-2.00e-01,
-2.196000e+00,-4.00e-01,
-2.195500e+00,-6.00e-01,
-2.195000e+00,-6.00e-01,
-2.194500e+00,-6.00e-01,
-2.194000e+00,-8.00e-01,
-2.193500e+00,-8.00e-01,
-2.193000e+00,-1.00e+00,
-2.192500e+00,-1.00e+00,
-2.192000e+00,-8.00e-01,
-2.191500e+00,-1.00e+00,
-2.191000e+00,-1.00e+00,
-2.190500e+00,-8.00e-01,
-2.190000e+00,-8.00e-01,
-2.189500e+00,-8.00e-01,
-2.189000e+00,-6.00e-01,
-2.188500e+00,-4.00e-01,
-2.188000e+00,-4.00e-01,
-2.187500e+00,-2.00e-01,
-2.187000e+00,-2.00e-01,
-2.186500e+00,0.00e+00,
-2.186000e+00,4.00e-01,
-2.185500e+00,4.00e-01,
-2.185000e+00,6.00e-01,
-2.184500e+00,8.00e-01,
-2.184000e+00,8.00e-01,
-2.183500e+00,1.20e+00,
-2.183000e+00,1.20e+00,
-2.182500e+00,1.40e+00,
-2.182000e+00,1.60e+00,
-2.181500e+00,1.80e+00,
-2.181000e+00,1.80e+00,
-2.180500e+00,1.80e+00,
-2.180000e+00,1.80e+00,
-2.179500e+00,2.00e+00,
-2.179000e+00,1.80e+00,
-2.178500e+00,1.80e+00,
-2.178000e+00,1.80e+00,
-2.177500e+00,1.60e+00,
-2.177000e+00,1.60e+00,
-2.176500e+00,1.20e+00,
-2.176000e+00,1.20e+00,
-2.175500e+00,1.00e+00,
-2.175000e+00,8.00e-01,
-2.174500e+00,6.00e-01,
-2.174000e+00,2.00e-01,
-2.173500e+00,-2.00e-01,
-2.173000e+00,-2.00e-01,
-2.172500e+00,-6.00e-01,
-2.172000e+00,-8.00e-01,
-2.171500e+00,-1.00e+00,
-2.171000e+00,-1.20e+00,
-2.170500e+00,-1.20e+00,
-2.170000e+00,-1.20e+00,
-2.169500e+00,-1.40e+00,
-2.169000e+00,-1.40e+00,
-2.168500e+00,-1.40e+00,
-2.168000e+00,-1.40e+00,
-2.167500e+00,-1.00e+00,
-2.167000e+00,-8.00e-01,
-2.166500e+00,-6.00e-01,
-2.166000e+00,-4.00e-01,
-2.165500e+00,-2.00e-01,
-2.165000e+00,0.00e+00,
-2.164500e+00,6.00e-01,
-2.164000e+00,8.00e-01,
-2.163500e+00,1.00e+00,
-2.163000e+00,1.40e+00,
-2.162500e+00,1.80e+00,
-2.162000e+00,2.00e+00,
-2.161500e+00,2.00e+00,
-2.161000e+00,2.40e+00,
-2.160500e+00,2.20e+00,
-2.160000e+00,2.40e+00,
-2.159500e+00,2.40e+00,
-2.159000e+00,2.20e+00,
-2.158500e+00,2.00e+00,
-2.158000e+00,1.80e+00,
-2.157500e+00,1.40e+00,
-2.157000e+00,1.00e+00,
-2.156500e+00,6.00e-01,
-2.156000e+00,2.00e-01,
-2.155500e+00,-2.00e-01,
-2.155000e+00,-6.00e-01,
-2.154500e+00,-1.00e+00,
-2.154000e+00,-1.20e+00,
-2.153500e+00,-1.60e+00,
-2.153000e+00,-1.80e+00,
-2.152500e+00,-1.80e+00,
-2.152000e+00,-1.80e+00,
-2.151500e+00,-1.80e+00,
-2.151000e+00,-1.60e+00,
-2.150500e+00,-1.40e+00,
-2.150000e+00,-8.00e-01,
-2.149500e+00,-4.00e-01,
-2.149000e+00,0.00e+00,
-2.148500e+00,4.00e-01,
-2.148000e+00,1.00e+00,
-2.147500e+00,1.40e+00,
-2.147000e+00,2.00e+00,
-2.146500e+00,2.40e+00,
-2.146000e+00,2.60e+00,
-2.145500e+00,2.80e+00,
-2.145000e+00,2.80e+00,
-2.144500e+00,2.80e+00,
-2.144000e+00,2.60e+00,
-2.143500e+00,2.40e+00,
-2.143000e+00,1.80e+00,
-2.142500e+00,1.40e+00,
-2.142000e+00,8.00e-01,
-2.141500e+00,0.00e+00,
-2.141000e+00,-6.00e-01,
-2.140500e+00,-1.00e+00,
-2.140000e+00,-1.40e+00,
-2.139500e+00,-1.80e+00,
-2.139000e+00,-2.00e+00,
-2.138500e+00,-2.40e+00,
-2.138000e+00,-2.20e+00,
-2.137500e+00,-2.20e+00,
-2.137000e+00,-1.80e+00,
-2.136500e+00,-1.20e+00,
-2.136000e+00,-6.00e-01,
-2.135500e+00,0.00e+00,
-2.135000e+00,6.00e-01,
-2.134500e+00,1.20e+00,
-2.134000e+00,1.80e+00,
-2.133500e+00,2.40e+00,
-2.133000e+00,2.80e+00,
-2.132500e+00,3.00e+00,
-2.132000e+00,3.00e+00,
-2.131500e+00,3.20e+00,
-2.131000e+00,2.80e+00,
-2.130500e+00,2.40e+00,
-2.130000e+00,2.00e+00,
-2.129500e+00,1.40e+00,
-2.129000e+00,6.00e-01,
-2.128500e+00,0.00e+00,
-2.128000e+00,-8.00e-01,
-2.127500e+00,-1.40e+00,
-2.127000e+00,-1.80e+00,
-2.126500e+00,-2.20e+00,
-2.126000e+00,-2.40e+00,
-2.125500e+00,-2.40e+00,
-2.125000e+00,-2.20e+00,
-2.124500e+00,-1.80e+00,
-2.124000e+00,-1.40e+00,
-2.123500e+00,-8.00e-01,
-2.123000e+00,-2.00e-01,
-2.122500e+00,6.00e-01,
-2.122000e+00,1.20e+00,
-2.121500e+00,1.80e+00,
-2.121000e+00,2.60e+00,
-2.120500e+00,2.80e+00,
-2.120000e+00,3.00e+00,
-2.119500e+00,3.20e+00,
-2.119000e+00,3.00e+00,
-2.118500e+00,2.80e+00,
-2.118000e+00,2.40e+00,
-2.117500e+00,2.00e+00,
-2.117000e+00,1.40e+00,
-2.116500e+00,6.00e-01,
-2.116000e+00,-2.00e-01,
-2.115500e+00,-1.00e+00,
-2.115000e+00,-1.40e+00,
-2.114500e+00,-1.80e+00,
-2.114000e+00,-2.20e+00,
-2.113500e+00,-2.40e+00,
-2.113000e+00,-2.40e+00,
-2.112500e+00,-2.20e+00,
-2.112000e+00,-1.80e+00,
-2.111500e+00,-1.20e+00,
-2.111000e+00,-6.00e-01,
-2.110500e+00,-2.00e-01,
-2.110000e+00,6.00e-01,
-2.109500e+00,1.40e+00,
-2.109000e+00,2.00e+00,
-2.108500e+00,2.60e+00,
-2.108000e+00,3.00e+00,
-2.107500e+00,3.20e+00,
-2.107000e+00,3.20e+00,
-2.106500e+00,3.20e+00,
-2.106000e+00,2.80e+00,
-2.105500e+00,2.20e+00,
-2.105000e+00,1.80e+00,
-2.104500e+00,1.00e+00,
-2.104000e+00,2.00e-01,
-2.103500e+00,-6.00e-01,
-2.103000e+00,-1.20e+00,
-2.102500e+00,-1.60e+00,
-2.102000e+00,-2.20e+00,
