0516_fw/fw55/30.0ohm/2.0hz7mm/DS0001.CSV

Format,2.0E,
Memory Length,100000,
IntpDistance,0,
Trigger Address,0,
Trigger Level,8.000E-03,
Source,CH1,
Vertical Units,V,
Vertical Units Div,0,
Vertical Units Extend Div,16,
Label, ,
Probe Type,0,
Probe Ratio,1.000E+00,
Vertical Scale,5.000E+00,
Vertical Position,0.000E+00,
Horizontal Units,S,
Horizontal Scale,5.000E-01,
Horizontal Position,0.000E+00,
Horizontal Mode,Roll Mode,
Display Last Dot Address,100000,
Waveform Last Dot Address,0,
SincET Mode,Real Time,
Sampling Period,5.000E-05,
Horizontal Old Scale,5.000E-01,
Horizontal Old Position,0.000E+00,
Firmware,V1.26,
Time,16-May-18 12:42:46,
Mode,Detail,
Waveform Data,
-2.500000e+00,5.80e+00,
-2.499950e+00,6.00e+00,
-2.499900e+00,6.00e+00,
-2.499850e+00,6.20e+00,
-2.499800e+00,6.40e+00,
-2.499750e+00,6.60e+00,
-2.499700e+00,6.60e+00,
-2.499650e+00,6.80e+00,
-2.499600e+00,6.80e+00,
-2.499550e+00,7.00e+00,
-2.499500e+00,7.00e+00,
-2.499450e+00,6.80e+00,
-2.499400e+00,6.80e+00,
-2.499350e+00,6.80e+00,
-2.499300e+00,6.80e+00,
-2.499250e+00,6.80e+00,
-2.499200e+00,6.60e+00,
-2.499150e+00,6.60e+00,
-2.499100e+00,6.60e+00,
-2.499050e+00,6.40e+00,
-2.499000e+00,6.20e+00,
-2.498950e+00,6.20e+00,
-2.498900e+00,6.00e+00,
-2.498850e+00,5.80e+00,
-2.498800e+00,5.60e+00,
-2.498750e+00,5.40e+00,
-2.498700e+00,5.00e+00,
-2.498650e+00,4.80e+00,
-2.498600e+00,4.60e+00,
-2.498550e+00,4.20e+00,
-2.498500e+00,4.00e+00,
-2.498450e+00,3.80e+00,
-2.498400e+00,3.40e+00,
-2.498350e+00,3.00e+00,
-2.498300e+00,2.80e+00,
-2.498250e+00,2.40e+00,
-2.498200e+00,2.20e+00,
-2.498150e+00,1.80e+00,
-2.498100e+00,1.40e+00,
-2.498050e+00,1.00e+00,
-2.498000e+00,8.00e-01,
-2.497950e+00,4.00e-01,
-2.497900e+00,0.00e+00,
-2.497850e+00,-4.00e-01,
-2.497800e+00,-8.00e-01,
-2.497750e+00,-1.00e+00,
-2.497700e+00,-1.40e+00,
-2.497650e+00,-1.80e+00,
-2.497600e+00,-2.00e+00,
-2.497550e+00,-2.40e+00,
-2.497500e+00,-2.80e+00,
-2.497450e+00,-3.20e+00,
-2.497400e+00,-3.40e+00,
-2.497350e+00,-3.60e+00,
-2.497300e+00,-4.00e+00,
-2.497250e+00,-4.40e+00,
-2.497200e+00,-4.60e+00,
-2.497150e+00,-4.80e+00,
-2.497100e+00,-5.00e+00,
-2.497050e+00,-5.20e+00,
-2.497000e+00,-5.40e+00,
-2.496950e+00,-5.60e+00,
-2.496900e+00,-5.80e+00,
-2.496850e+00,-5.80e+00,
-2.496800e+00,-6.00e+00,
-2.496750e+00,-6.00e+00,
-2.496700e+00,-6.20e+00,
-2.496650e+00,-6.20e+00,
-2.496600e+00,-6.20e+00,
-2.496550e+00,-6.20e+00,
-2.496500e+00,-6.20e+00,
-2.496450e+00,-6.20e+00,
-2.496400e+00,-6.20e+00,
-2.496350e+00,-6.20e+00,
-2.496300e+00,-6.00e+00,
-2.496250e+00,-5.80e+00,
-2.496200e+00,-5.80e+00,
-2.496150e+00,-5.60e+00,
-2.496100e+00,-5.40e+00,
-2.496050e+00,-5.40e+00,
-2.496000e+00,-5.20e+00,
-2.495950e+00,-4.80e+00,
-2.495900e+00,-4.80e+00,
-2.495850e+00,-4.40e+00,
-2.495800e+00,-4.20e+00,
-2.495750e+00,-3.80e+00,
-2.495700e+00,-3.60e+00,
-2.495650e+00,-3.40e+00,
-2.495600e+00,-3.00e+00,
-2.495550e+00,-2.60e+00,
-2.495500e+00,-2.40e+00,
-2.495450e+00,-2.00e+00,
-2.495400e+00,-1.60e+00,
-2.495350e+00,-1.20e+00,
-2.495300e+00,-1.00e+00,
-2.495250e+00,-6.00e-01,
-2.495200e+00,-2.00e-01,
-2.495150e+00,0.00e+00,
-2.495100e+00,4.00e-01,
-2.495050e+00,8.00e-01,
-2.495000e+00,1.00e+00,
-2.494950e+00,1.40e+00,
-2.494900e+00,1.80e+00,
-2.494850e+00,2.20e+00,
-2.494800e+00,2.40e+00,
-2.494750e+00,2.80e+00,
-2.494700e+00,3.20e+00,
-2.494650e+00,3.60e+00,
-2.494600e+00,3.80e+00,
-2.494550e+00,4.20e+00,
-2.494500e+00,4.40e+00,
-2.494450e+00,4.60e+00,
-2.494400e+00,5.00e+00,
-2.494350e+00,5.20e+00,
-2.494300e+00,5.40e+00,
-2.494250e+00,5.80e+00,
-2.494200e+00,6.00e+00,
-2.494150e+00,6.00e+00,
-2.494100e+00,6.40e+00,
-2.494050e+00,6.40e+00,
-2.494000e+00,6.60e+00,
-2.493950e+00,6.80e+00,
-2.493900e+00,6.80e+00,
-2.493850e+00,7.00e+00,
-2.493800e+00,7.00e+00,
-2.493750e+00,7.20e+00,
-2.493700e+00,7.00e+00,
-2.493650e+00,7.20e+00,
-2.493600e+00,7.00e+00,
-2.493550e+00,7.20e+00,
-2.493500e+00,7.00e+00,
-2.493450e+00,7.00e+00,
-2.493400e+00,7.00e+00,
-2.493350e+00,6.80e+00,
-2.493300e+00,6.60e+00,
-2.493250e+00,6.40e+00,
-2.493200e+00,6.40e+00,
-2.493150e+00,6.00e+00,
-2.493100e+00,6.00e+00,
-2.493050e+00,5.60e+00,
-2.493000e+00,5.60e+00,
-2.492950e+00,5.20e+00,
-2.492900e+00,5.00e+00,
-2.492850e+00,4.80e+00,
-2.492800e+00,4.40e+00,
-2.492750e+00,4.20e+00,
-2.492700e+00,3.80e+00,
-2.492650e+00,3.40e+00,
-2.492600e+00,3.00e+00,
-2.492550e+00,2.80e+00,
-2.492500e+00,2.40e+00,
-2.492450e+00,2.00e+00,
-2.492400e+00,1.80e+00,
-2.492350e+00,1.20e+00,
-2.492300e+00,1.00e+00,
-2.492250e+00,6.00e-01,
-2.492200e+00,0.00e+00,
-2.492150e+00,-2.00e-01,
-2.492100e+00,-6.00e-01,
-2.492050e+00,-1.00e+00,
-2.492000e+00,-1.40e+00,
-2.491950e+00,-1.80e+00,
-2.491900e+00,-2.20e+00,
-2.491850e+00,-2.40e+00,
-2.491800e+00,-2.80e+00,
-2.491750e+00,-3.20e+00,
-2.491700e+00,-3.40e+00,
-2.491650e+00,-3.80e+00,
-2.491600e+00,-4.00e+00,
-2.491550e+00,-4.40e+00,
-2.491500e+00,-4.80e+00,
-2.491450e+00,-4.80e+00,
-2.491400e+00,-5.20e+00,
-2.491350e+00,-5.40e+00,
-2.491300e+00,-5.60e+00,
-2.491250e+00,-5.80e+00,
-2.491200e+00,-6.00e+00,
-2.491150e+00,-6.00e+00,
-2.491100e+00,-6.20e+00,
-2.491050e+00,-6.20e+00,
-2.491000e+00,-6.20e+00,
-2.490950e+00,-6.40e+00,
-2.490900e+00,-6.40e+00,
-2.490850e+00,-6.40e+00,
-2.490800e+00,-6.20e+00,
-2.490750e+00,-6.20e+00,
-2.490700e+00,-6.20e+00,
-2.490650e+00,-6.20e+00,
-2.490600e+00,-6.00e+00,
-2.490550e+00,-6.00e+00,
-2.490500e+00,-5.80e+00,
-2.490450e+00,-5.40e+00,
-2.490400e+00,-5.40e+00,
-2.490350e+00,-5.20e+00,
-2.490300e+00,-5.00e+00,
-2.490250e+00,-4.80e+00,
-2.490200e+00,-4.40e+00,
-2.490150e+00,-4.40e+00,
-2.490100e+00,-4.00e+00,
-2.490050e+00,-3.80e+00,
-2.490000e+00,-3.40e+00,
-2.489950e+00,-3.00e+00,
-2.489900e+00,-2.80e+00,
-2.489850e+00,-2.40e+00,
-2.489800e+00,-2.00e+00,
-2.489750e+00,-1.60e+00,
-2.489700e+00,-1.40e+00,
-2.489650e+00,-1.00e+00,
-2.489600e+00,-6.00e-01,
-2.489550e+00,-2.00e-01,
-2.489500e+00,0.00e+00,
-2.489450e+00,4.00e-01,
-2.489400e+00,8.00e-01,
-2.489350e+00,1.20e+00,
-2.489300e+00,1.60e+00,
-2.489250e+00,2.00e+00,
-2.489200e+00,2.20e+00,
-2.489150e+00,2.60e+00,
-2.489100e+00,3.00e+00,
-2.489050e+00,3.20e+00,
-2.489000e+00,3.60e+00,
-2.488950e+00,4.00e+00,
-2.488900e+00,4.20e+00,
-2.488850e+00,4.60e+00,
-2.488800e+00,5.00e+00,
-2.488750e+00,5.20e+00,
-2.488700e+00,5.40e+00,
-2.488650e+00,5.60e+00,
-2.488600e+00,6.00e+00,
-2.488550e+00,6.20e+00,
-2.488500e+00,6.40e+00,
-2.488450e+00,6.60e+00,
-2.488400e+00,6.60e+00,
-2.488350e+00,6.80e+00,
-2.488300e+00,6.80e+00,
-2.488250e+00,7.00e+00,
-2.488200e+00,7.00e+00,
-2.488150e+00,7.20e+00,
-2.488100e+00,7.20e+00,
-2.488050e+00,7.20e+00,
-2.488000e+00,7.40e+00,
-2.487950e+00,7.00e+00,
-2.487900e+00,7.00e+00,
-2.487850e+00,7.00e+00,
-2.487800e+00,7.00e+00,
-2.487750e+00,6.80e+00,
-2.487700e+00,6.80e+00,
-2.487650e+00,6.60e+00,
-2.487600e+00,6.40e+00,
-2.487550e+00,6.20e+00,
-2.487500e+00,6.00e+00,
-2.487450e+00,5.80e+00,
-2.487400e+00,5.60e+00,
-2.487350e+00,5.20e+00,
-2.487300e+00,5.00e+00,
-2.487250e+00,4.80e+00,
-2.487200e+00,4.60e+00,
-2.487150e+00,4.20e+00,
-2.487100e+00,3.80e+00,
-2.487050e+00,3.60e+00,
-2.487000e+00,3.00e+00,
-2.486950e+00,2.80e+00,
-2.486900e+00,2.40e+00,
-2.486850e+00,2.20e+00,
-2.486800e+00,1.80e+00,
-2.486750e+00,1.40e+00,
-2.486700e+00,1.00e+00,
-2.486650e+00,6.00e-01,
-2.486600e+00,2.00e-01,
-2.486550e+00,-2.00e-01,
-2.486500e+00,-6.00e-01,
-2.486450e+00,-1.00e+00,
-2.486400e+00,-1.20e+00,
-2.486350e+00,-1.60e+00,
-2.486300e+00,-2.00e+00,
-2.486250e+00,-2.40e+00,
-2.486200e+00,-2.60e+00,
-2.486150e+00,-3.00e+00,
-2.486100e+00,-3.40e+00,
-2.486050e+00,-3.80e+00,
-2.486000e+00,-3.80e+00,
-2.485950e+00,-4.20e+00,
-2.485900e+00,-4.40e+00,
-2.485850e+00,-4.80e+00,
-2.485800e+00,-5.00e+00,
-2.485750e+00,-5.20e+00,
-2.485700e+00,-5.20e+00,
-2.485650e+00,-5.60e+00,
-2.485600e+00,-5.80e+00,
-2.485550e+00,-6.00e+00,
-2.485500e+00,-6.00e+00,
-2.485450e+00,-6.20e+00,
-2.485400e+00,-6.20e+00,
-2.485350e+00,-6.20e+00,
-2.485300e+00,-6.20e+00,
-2.485250e+00,-6.40e+00,
-2.485200e+00,-6.20e+00,
-2.485150e+00,-6.20e+00,
-2.485100e+00,-6.20e+00,
-2.485050e+00,-6.20e+00,
-2.485000e+00,-6.00e+00,
-2.484950e+00,-6.00e+00,
-2.484900e+00,-5.80e+00,
-2.484850e+00,-5.60e+00,
-2.484800e+00,-5.60e+00,
-2.484750e+00,-5.40e+00,
-2.484700e+00,-5.00e+00,
-2.484650e+00,-4.80e+00,
-2.484600e+00,-4.80e+00,
-2.484550e+00,-4.40e+00,
-2.484500e+00,-4.20e+00,
-2.484450e+00,-4.00e+00,
-2.484400e+00,-3.80e+00,
-2.484350e+00,-3.40e+00,
-2.484300e+00,-3.00e+00,
-2.484250e+00,-2.80e+00,
-2.484200e+00,-2.40e+00,
-2.484150e+00,-2.20e+00,
-2.484100e+00,-1.80e+00,
-2.484050e+00,-1.40e+00,
-2.484000e+00,-1.00e+00,
-2.483950e+00,-6.00e-01,
-2.483900e+00,-4.00e-01,
-2.483850e+00,0.00e+00,
-2.483800e+00,2.00e-01,
-2.483750e+00,6.00e-01,
-2.483700e+00,1.00e+00,
-2.483650e+00,1.40e+00,
-2.483600e+00,1.60e+00,
-2.483550e+00,2.00e+00,
-2.483500e+00,2.20e+00,
-2.483450e+00,2.60e+00,
-2.483400e+00,3.00e+00,
-2.483350e+00,3.20e+00,
-2.483300e+00,3.60e+00,
-2.483250e+00,3.80e+00,
-2.483200e+00,4.00e+00,
-2.483150e+00,4.40e+00,
-2.483100e+00,4.60e+00,
-2.483050e+00,5.00e+00,
-2.483000e+00,5.20e+00,
-2.482950e+00,5.40e+00,
-2.482900e+00,5.60e+00,
-2.482850e+00,5.80e+00,
-2.482800e+00,6.00e+00,
-2.482750e+00,6.20e+00,
-2.482700e+00,6.20e+00,
-2.482650e+00,6.40e+00,
-2.482600e+00,6.60e+00,
-2.482550e+00,6.60e+00,
-2.482500e+00,6.80e+00,
-2.482450e+00,6.80e+00,
-2.482400e+00,6.80e+00,
-2.482350e+00,6.80e+00,
-2.482300e+00,6.80e+00,
-2.482250e+00,6.80e+00,
-2.482200e+00,6.80e+00,
-2.482150e+00,6.80e+00,
-2.482100e+00,6.80e+00,
-2.482050e+00,6.60e+00,
-2.482000e+00,6.40e+00,
-2.481950e+00,6.40e+00,
-2.481900e+00,6.40e+00,
-2.481850e+00,6.20e+00,
-2.481800e+00,6.00e+00,
-2.481750e+00,5.80e+00,
-2.481700e+00,5.60e+00,
-2.481650e+00,5.60e+00,
-2.481600e+00,5.20e+00,
-2.481550e+00,5.00e+00,
-2.481500e+00,4.80e+00,
-2.481450e+00,4.40e+00,
-2.481400e+00,4.40e+00,
-2.481350e+00,3.80e+00,
-2.481300e+00,3.60e+00,
-2.481250e+00,3.40e+00,
-2.481200e+00,3.00e+00,
-2.481150e+00,2.80e+00,
-2.481100e+00,2.40e+00,
-2.481050e+00,2.00e+00,
-2.481000e+00,1.80e+00,
-2.480950e+00,1.40e+00,
-2.480900e+00,1.20e+00,
-2.480850e+00,8.00e-01,
-2.480800e+00,2.00e-01,
-2.480750e+00,0.00e+00,
-2.480700e+00,-2.00e-01,
-2.480650e+00,-6.00e-01,
-2.480600e+00,-1.00e+00,
-2.480550e+00,-1.20e+00,
-2.480500e+00,-1.60e+00,
-2.480450e+00,-2.00e+00,
-2.480400e+00,-2.40e+00,
-2.480350e+00,-2.60e+00,
-2.480300e+00,-2.80e+00,
-2.480250e+00,-3.20e+00,
-2.480200e+00,-3.40e+00,
-2.480150e+00,-3.80e+00,
-2.480100e+00,-4.00e+00,
-2.480050e+00,-4.20e+00,
-2.480000e+00,-4.40e+00,
-2.479950e+00,-4.60e+00,
-2.479900e+00,-4.80e+00,
-2.479850e+00,-5.00e+00,
-2.479800e+00,-5.20e+00,
-2.479750e+00,-5.40e+00,
-2.479700e+00,-5.40e+00,
-2.479650e+00,-5.60e+00,
-2.479600e+00,-5.60e+00,
-2.479550e+00,-5.60e+00,
-2.479500e+00,-5.80e+00,
-2.479450e+00,-5.80e+00,
-2.479400e+00,-5.80e+00,
-2.479350e+00,-5.80e+00,
-2.479300e+00,-6.00e+00,
-2.479250e+00,-5.80e+00,
-2.479200e+00,-5.60e+00,
-2.479150e+00,-5.80e+00,
-2.479100e+00,-5.60e+00,
-2.479050e+00,-5.60e+00,
-2.479000e+00,-5.40e+00,
-2.478950e+00,-5.20e+00,
-2.478900e+00,-5.20e+00,
-2.478850e+00,-5.00e+00,
-2.478800e+00,-4.80e+00,
-2.478750e+00,-4.60e+00,
-2.478700e+00,-4.60e+00,
-2.478650e+00,-4.20e+00,
-2.478600e+00,-4.20e+00,
-2.478550e+00,-4.00e+00,
-2.478500e+00,-3.60e+00,
-2.478450e+00,-3.20e+00,
-2.478400e+00,-3.00e+00,
-2.478350e+00,-2.80e+00,
-2.478300e+00,-2.60e+00,
-2.478250e+00,-2.40e+00,
-2.478200e+00,-2.00e+00,
-2.478150e+00,-1.60e+00,
-2.478100e+00,-1.40e+00,
-2.478050e+00,-1.20e+00,
-2.478000e+00,-8.00e-01,
-2.477950e+00,-4.00e-01,
-2.477900e+00,-2.00e-01,
-2.477850e+00,2.00e-01,
-2.477800e+00,4.00e-01,
-2.477750e+00,8.00e-01,
-2.477700e+00,1.00e+00,
-2.477650e+00,1.40e+00,
-2.477600e+00,1.80e+00,
-2.477550e+00,2.00e+00,
-2.477500e+00,2.20e+00,
-2.477450e+00,2.40e+00,
-2.477400e+00,2.60e+00,
-2.477350e+00,3.00e+00,
-2.477300e+00,3.40e+00,
-2.477250e+00,3.60e+00,
-2.477200e+00,4.00e+00,
-2.477150e+00,4.00e+00,
-2.477100e+00,4.40e+00,
-2.477050e+00,4.60e+00,
-2.477000e+00,4.80e+00,
-2.476950e+00,5.00e+00,
-2.476900e+00,5.20e+00,
-2.476850e+00,5.40e+00,
-2.476800e+00,5.60e+00,
-2.476750e+00,5.80e+00,
-2.476700e+00,5.80e+00,
-2.476650e+00,6.00e+00,
-2.476600e+00,6.20e+00,
-2.476550e+00,6.20e+00,
-2.476500e+00,6.40e+00,
-2.476450e+00,6.40e+00,
-2.476400e+00,6.60e+00,
-2.476350e+00,6.60e+00,
-2.476300e+00,6.60e+00,
-2.476250e+00,6.60e+00,
-2.476200e+00,6.60e+00,
-2.476150e+00,6.40e+00,
-2.476100e+00,6.60e+00,
-2.476050e+00,6.60e+00,
-2.476000e+00,6.40e+00,
-2.475950e+00,6.40e+00,
-2.475900e+00,6.40e+00,
-2.475850e+00,6.00e+00,
-2.475800e+00,6.00e+00,
-2.475750e+00,5.80e+00,
-2.475700e+00,5.80e+00,
-2.475650e+00,5.60e+00,
-2.475600e+00,5.40e+00,
-2.475550e+00,5.20e+00,
-2.475500e+00,5.00e+00,
-2.475450e+00,4.80e+00,
-2.475400e+00,4.60e+00,
-2.475350e+00,4.40e+00,
-2.475300e+00,4.00e+00,
-2.475250e+00,3.80e+00,
-2.475200e+00,3.60e+00,
-2.475150e+00,3.20e+00,
-2.475100e+00,3.00e+00,
-2.475050e+00,2.60e+00,
-2.475000e+00,2.40e+00,
-2.474950e+00,2.00e+00,
-2.474900e+00,1.80e+00,
-2.474850e+00,1.40e+00,
-2.474800e+00,1.20e+00,
-2.474750e+00,8.00e-01,
-2.474700e+00,4.00e-01,
-2.474650e+00,0.00e+00,
-2.474600e+00,-2.00e-01,
-2.474550e+00,-4.00e-01,
-2.474500e+00,-8.00e-01,
-2.474450e+00,-1.00e+00,
-2.474400e+00,-1.40e+00,
-2.474350e+00,-1.80e+00,
-2.474300e+00,-2.00e+00,
-2.474250e+00,-2.40e+00,
-2.474200e+00,-2.60e+00,
-2.474150e+00,-3.00e+00,
-2.474100e+00,-3.20e+00,
-2.474050e+00,-3.60e+00,
-2.474000e+00,-3.60e+00,
-2.473950e+00,-4.00e+00,
-2.473900e+00,-4.00e+00,
-2.473850e+00,-4.40e+00,
-2.473800e+00,-4.60e+00,
-2.473750e+00,-4.80e+00,
-2.473700e+00,-5.00e+00,
-2.473650e+00,-5.20e+00,
-2.473600e+00,-5.20e+00,
-2.473550e+00,-5.20e+00,
-2.473500e+00,-5.40e+00,
-2.473450e+00,-5.60e+00,
-2.473400e+00,-5.60e+00,
-2.473350e+00,-5.60e+00,
-2.473300e+00,-5.80e+00,
-2.473250e+00,-5.80e+00,
-2.473200e+00,-5.60e+00,
-2.473150e+00,-5.60e+00,
-2.473100e+00,-5.60e+00,
-2.473050e+00,-5.80e+00,
-2.473000e+00,-5.60e+00,
-2.472950e+00,-5.40e+00,
-2.472900e+00,-5.40e+00,
-2.472850e+00,-5.40e+00,
-2.472800e+00,-5.20e+00,
-2.472750e+00,-5.20e+00,
-2.472700e+00,-5.00e+00,
-2.472650e+00,-5.00e+00,
-2.472600e+00,-4.80e+00,
-2.472550e+00,-4.60e+00,
-2.472500e+00,-4.40e+00,
-2.472450e+00,-4.20e+00,
-2.472400e+00,-4.00e+00,
-2.472350e+00,-3.60e+00,
-2.472300e+00,-3.40e+00,
-2.472250e+00,-3.20e+00,
-2.472200e+00,-2.80e+00,
-2.472150e+00,-2.60e+00,
-2.472100e+00,-2.20e+00,
-2.472050e+00,-2.20e+00,
-2.472000e+00,-1.80e+00,
-2.471950e+00,-1.60e+00,
-2.471900e+00,-1.20e+00,
-2.471850e+00,-1.00e+00,
-2.471800e+00,-6.00e-01,
-2.471750e+00,-2.00e-01,
-2.471700e+00,0.00e+00,
-2.471650e+00,4.00e-01,
-2.471600e+00,6.00e-01,
-2.471550e+00,1.00e+00,
-2.471500e+00,1.20e+00,
-2.471450e+00,1.40e+00,
-2.471400e+00,1.80e+00,
-2.471350e+00,2.20e+00,
-2.471300e+00,2.40e+00,
-2.471250e+00,2.80e+00,
-2.471200e+00,3.00e+00,
-2.471150e+00,3.20e+00,
-2.471100e+00,3.60e+00,
-2.471050e+00,3.80e+00,
-2.471000e+00,4.00e+00,
-2.470950e+00,4.20e+00,
-2.470900e+00,4.40e+00,
-2.470850e+00,4.80e+00,
-2.470800e+00,5.00e+00,
-2.470750e+00,5.20e+00,
-2.470700e+00,5.40e+00,
-2.470650e+00,5.60e+00,
-2.470600e+00,5.80e+00,
-2.470550e+00,5.80e+00,
-2.470500e+00,6.00e+00,
-2.470450e+00,6.20e+00,
-2.470400e+00,6.20e+00,
-2.470350e+00,6.40e+00,
-2.470300e+00,6.40e+00,
-2.470250e+00,6.60e+00,
-2.470200e+00,6.60e+00,
-2.470150e+00,6.60e+00,
-2.470100e+00,6.60e+00,
-2.470050e+00,6.60e+00,
-2.470000e+00,6.60e+00,
-2.469950e+00,6.60e+00,
-2.469900e+00,6.40e+00,
-2.469850e+00,6.60e+00,
-2.469800e+00,6.40e+00,
-2.469750e+00,6.20e+00,
-2.469700e+00,6.20e+00,
-2.469650e+00,6.00e+00,
-2.469600e+00,6.00e+00,
-2.469550e+00,5.80e+00,
-2.469500e+00,5.60e+00,
-2.469450e+00,5.60e+00,
-2.469400e+00,5.40e+00,
-2.469350e+00,5.20e+00,
-2.469300e+00,5.00e+00,
-2.469250e+00,4.60e+00,
-2.469200e+00,4.40e+00,
-2.469150e+00,4.00e+00,
-2.469100e+00,3.80e+00,
-2.469050e+00,3.60e+00,
-2.469000e+00,3.20e+00,
-2.468950e+00,3.00e+00,
-2.468900e+00,2.60e+00,
-2.468850e+00,2.40e+00,
-2.468800e+00,2.20e+00,
-2.468750e+00,1.80e+00,
-2.468700e+00,1.40e+00,
-2.468650e+00,1.20e+00,
-2.468600e+00,1.00e+00,
-2.468550e+00,6.00e-01,
-2.468500e+00,2.00e-01,
-2.468450e+00,0.00e+00,
-2.468400e+00,-4.00e-01,
-2.468350e+00,-8.00e-01,
-2.468300e+00,-1.00e+00,
-2.468250e+00,-1.40e+00,
-2.468200e+00,-1.80e+00,
-2.468150e+00,-2.00e+00,
-2.468100e+00,-2.40e+00,
-2.468050e+00,-2.60e+00,
-2.468000e+00,-2.80e+00,
-2.467950e+00,-3.20e+00,
-2.467900e+00,-3.40e+00,
-2.467850e+00,-3.60e+00,
-2.467800e+00,-4.00e+00,
-2.467750e+00,-4.20e+00,
-2.467700e+00,-4.40e+00,
-2.467650e+00,-4.60e+00,
-2.467600e+00,-4.80e+00,
-2.467550e+00,-5.00e+00,
-2.467500e+00,-5.00e+00,
-2.467450e+00,-5.20e+00,
-2.467400e+00,-5.40e+00,
-2.467350e+00,-5.40e+00,
-2.467300e+00,-5.60e+00,
-2.467250e+00,-5.80e+00,
-2.467200e+00,-5.80e+00,
-2.467150e+00,-5.80e+00,
-2.467100e+00,-5.80e+00,
-2.467050e+00,-5.80e+00,
-2.467000e+00,-5.80e+00,
-2.466950e+00,-5.80e+00,
-2.466900e+00,-5.80e+00,
-2.466850e+00,-5.60e+00,
-2.466800e+00,-5.60e+00,
-2.466750e+00,-5.40e+00,
-2.466700e+00,-5.40e+00,
-2.466650e+00,-5.20e+00,
-2.466600e+00,-5.20e+00,
-2.466550e+00,-5.00e+00,
-2.466500e+00,-4.80e+00,
-2.466450e+00,-4.60e+00,
-2.466400e+00,-4.60e+00,
-2.466350e+00,-4.40e+00,
-2.466300e+00,-4.00e+00,
-2.466250e+00,-3.80e+00,
-2.466200e+00,-3.60e+00,
-2.466150e+00,-3.40e+00,
-2.466100e+00,-3.00e+00,
-2.466050e+00,-2.80e+00,
-2.466000e+00,-2.60e+00,
-2.465950e+00,-2.20e+00,
-2.465900e+00,-2.00e+00,
-2.465850e+00,-1.80e+00,
-2.465800e+00,-1.40e+00,
-2.465750e+00,-1.00e+00,
-2.465700e+00,-8.00e-01,
-2.465650e+00,-4.00e-01,
-2.465600e+00,-2.00e-01,
-2.465550e+00,2.00e-01,
-2.465500e+00,6.00e-01,
-2.465450e+00,8.00e-01,
-2.465400e+00,1.20e+00,
-2.465350e+00,1.40e+00,
-2.465300e+00,1.80e+00,
-2.465250e+00,2.00e+00,
-2.465200e+00,2.20e+00,
-2.465150e+00,2.60e+00,
-2.465100e+00,2.80e+00,
-2.465050e+00,3.00e+00,
-2.465000e+00,3.40e+00,
-2.464950e+00,3.60e+00,
-2.464900e+00,3.80e+00,
-2.464850e+00,4.20e+00,
-2.464800e+00,4.20e+00,
-2.464750e+00,4.60e+00,
-2.464700e+00,4.80e+00,
-2.464650e+00,5.20e+00,
-2.464600e+00,5.20e+00,
-2.464550e+00,5.40e+00,
-2.464500e+00,5.60e+00,
-2.464450e+00,5.80e+00,
-2.464400e+00,6.00e+00,
-2.464350e+00,6.20e+00,
-2.464300e+00,6.20e+00,
-2.464250e+00,6.40e+00,
-2.464200e+00,6.40e+00,
-2.464150e+00,6.40e+00,
-2.464100e+00,6.60e+00,
-2.464050e+00,6.40e+00,
-2.464000e+00,6.60e+00,
-2.463950e+00,6.60e+00,
-2.463900e+00,6.60e+00,
-2.463850e+00,6.40e+00,
-2.463800e+00,6.40e+00,
-2.463750e+00,6.40e+00,
-2.463700e+00,6.40e+00,
-2.463650e+00,6.40e+00,
-2.463600e+00,6.20e+00,
-2.463550e+00,6.00e+00,
-2.463500e+00,6.00e+00,
-2.463450e+00,5.80e+00,
-2.463400e+00,5.80e+00,
-2.463350e+00,5.60e+00,
-2.463300e+00,5.40e+00,
-2.463250e+00,5.20e+00,
-2.463200e+00,5.00e+00,
-2.463150e+00,4.80e+00,
-2.463100e+00,4.60e+00,
-2.463050e+00,4.20e+00,
-2.463000e+00,4.00e+00,
-2.462950e+00,3.60e+00,
-2.462900e+00,3.40e+00,
-2.462850e+00,3.20e+00,
-2.462800e+00,2.80e+00,
-2.462750e+00,2.60e+00,
-2.462700e+00,2.20e+00,
-2.462650e+00,2.00e+00,
-2.462600e+00,1.80e+00,
-2.462550e+00,1.60e+00,
-2.462500e+00,1.20e+00,
-2.462450e+00,8.00e-01,
-2.462400e+00,6.00e-01,
-2.462350e+00,0.00e+00,
-2.462300e+00,-2.00e-01,
-2.462250e+00,-6.00e-01,
-2.462200e+00,-8.00e-01,
-2.462150e+00,-1.20e+00,
-2.462100e+00,-1.40e+00,
-2.462050e+00,-1.80e+00,
-2.462000e+00,-2.00e+00,
-2.461950e+00,-2.40e+00,
-2.461900e+00,-2.60e+00,
-2.461850e+00,-3.00e+00,
-2.461800e+00,-3.00e+00,
-2.461750e+00,-3.40e+00,
-2.461700e+00,-3.40e+00,
-2.461650e+00,-3.80e+00,
-2.461600e+00,-4.00e+00,
-2.461550e+00,-4.20e+00,
-2.461500e+00,-4.60e+00,
-2.461450e+00,-4.60e+00,
-2.461400e+00,-4.80e+00,
-2.461350e+00,-5.00e+00,
-2.461300e+00,-5.20e+00,
-2.461250e+00,-5.20e+00,
-2.461200e+00,-5.40e+00,
-2.461150e+00,-5.40e+00,
-2.461100e+00,-5.40e+00,
-2.461050e+00,-5.60e+00,
-2.461000e+00,-5.60e+00,
-2.460950e+00,-5.60e+00,
-2.460900e+00,-5.60e+00,
-2.460850e+00,-5.40e+00,
-2.460800e+00,-5.60e+00,
-2.460750e+00,-5.60e+00,
-2.460700e+00,-5.60e+00,
-2.460650e+00,-5.40e+00,
-2.460600e+00,-5.40e+00,
-2.460550e+00,-5.40e+00,
-2.460500e+00,-5.20e+00,
